{
  "campaignId" : "7",
  "visitId" : "476342-D8F6-4C49-8B81-EFFR54427803",
  "inspectorId" : "inspector",
  "startDate" : "10\/11\/2016 09:41",
  "bizId" : "kilgorismedicalclinic",
  "bizName" : "Kilgoris Medical Clinic",
  "endDate" : "20\/11\/2016 09:41",
  "status": "closed",
  "comments" : "The owner was a bit rude. He was not willing to collaborate. I had to call the police.",
  "issues" : [
        {
                "id": "VAT_not_payed",
                "reason": "Taxes",
                "action": "Economic penalty",
                "body": "The business must my fined as a consequence of unpayed taxes.",
                "attribute": "VAT",
                "images": ["003", "004", "005", "006", "007"]

        },
        {
                "id": "unhealthy_conditions",
                "reason": "Salubrity",
                "action": "Economic penalty",
                "body": "Dirt and rats. The shop is unhealthy",
                "attribute": "Salubrity",
                "images": ["008", "010", "011", "014", "015"]
        }
  ],
  "notes" : [
                {
                        "id": "note 1",
                        "reason": "wrong address",
                        "body": "Not corresponding address",
                        "attribute": "address",
                        "images": ["016", "017", "012", "013"]
                },
                {
                        "id": "note 2",
                        "reason": "wrong number of employees",
                        "body": "The number of employees is not right",
                        "attribute": "employees",
						"images": ["001", "002"]
                }
  ],
  "scans" : [
    {
      "crypto" : {
        "" : ""
      },
      "uuid" : "6A357F93-B771-4192-9AB9-CCEBCAB19680",
      "error" : "FAIL FeatureDetector 1",
      "valid_code" : "NoCode",
      "issue" : {
        "action" : "none",
        "images" : [

        ],
        "id" : "FEDD492B-876E-4AA1-AE36-B3FA2B0F24B0",
        "body" : "Found an Issue",
        "attribute" : "6A357F93-B771-4192-9AB9-CCEBCAB19680",
        "reason" : "Wrong owners"
      },
      "date" : "11\/01\/2017 16:56"
    }
  ],
  "validatedAttributes":[
        {"attribute": "businessTypeCode",
        "date" : "05/05/2016 13:15"},
        {"attribute": "registrationDate",
        "date" : "05/05/2016 13:15"},
        {"attribute": "tradingName",
        "date" : "05/05/2016 13:15"}		,
        {"attribute": "certificateNumber",
        "date" : "05/05/2016 13:15"},
        {"attribute": "telephone",
        "date" : "05/05/2016 13:15"},
        {"attribute": "fax",
        "date" : "05/05/2016 13:15"},
        {"attribute": "street",
        "date" : "05/05/2016 13:15"},
        {"attribute": "descAddress",
        "date" : "05/05/2016 13:15"},
        {"attribute": "county",
        "date" : "05/05/2016 13:15"}
  ]
}