{
  "campaignId" : "7",
  "visitId" : "476342-D8F6-4C49-8B81-E27806234559",
  "inspectorId" : "inspector",
  "startDate" : "20\/10\/2016 09:41",
  "bizId" : "kilgorismedicalclinic",
  "bizName" : "Kilgoris Medical Clinic",
  "endDate" : "14\/11\/2016 09:41",
  "status": "closed",
  "comments" : "Visit closed successfully. The owner was very kind and very efficient providing all papers.",
  "issues" : [
        {
                "id": "VAT_not_payed",
                "reason": "Taxes",
                "action": "Economic penalty",
                "body": "The business must my fined as a consequence of unpayed taxes.",
                "attribute": "VAT",
                "images": ["001", "002", "003", "004", "005", "006", "007"],
				"documents": ["printer"]
        },
        {
                "id": "unhealthy_conditions",
                "reason": "Salubrity",
                "action": "Economic penalty",
                "body": "Dirt and rats. The shop is unhealthy",
                "attribute": "Salubrity",
                "images": ["008", "009", "010", "011", "012", "013", "014", "015"]
        }
  ],
  "notes" : [
                {
                        "id": "note 1",
                        "reason": "wrong address",
                        "body": "Not corresponding address",
                        "attribute": "address",
                        "images": ["016", "017"]
                },
                {
                        "id": "note 2",
                        "reason": "wrong number of employees",
                        "body": "The number of employees is not right",
                        "attribute": "employees"
                }
  ],
  "validatedAttributes":[
        {"attribute": "name",
        "date" : "05/05/2016 13:15"},
        {"attribute": "businessOwner",
        "date" : "05/05/2016 13:15"}
  ],
  "scans" : [
    {
      "crypto" : {
        "" : ""
      },
      "uuid" : "6A357F93-B771-4192-9AB9-CCEBCAB19680",
      "error" : "FAIL FeatureDetector 1",
      "valid_code" : "NoCode",
      "issue" : {
        "action" : "none",
        "images" : [

        ],
        "id" : "FEDD492B-876E-4AA1-AE36-B3FA2B0F24B0",
        "body" : "Found an Issue",
        "attribute" : "6A357F93-B771-4192-9AB9-CCEBCAB19680",
        "reason" : "Wrong owners"
      },
      "date" : "11\/01\/2017 16:56"
    },
    {
      "uuid" : "AF7749AF-459F-4E80-AB96-89CE74FF0C37",
      "codeType" : "510",
      "batchID" : "366",
      "date" : "11\/01\/2017 16:56",
      "crypto" : {
        "batchID" : "187",
        "sequence" : "10207553",
        "codeType" : "510"
      },
      "code" : "133CW1KSKJRMLFWBN5HWSL",
      "valid_code" : "Valid",
      "sequence" : "12207521"
    },
	{
      "uuid" : "AF7199AE-429F-4F80-AA26-89CE74FF0C19",
      "codeType" : "670",
      "batchID" : "187",
      "date" : "11\/01\/2017 16:56",
      "crypto" : {
        "batchID" : "217",
        "sequence" : "10207553",
        "codeType" : "510"
      },
      "code" : "CF3434534RMLFWBN5HWHY",
      "valid_code" : "Valid",
      "sequence" : "10208953"
    },
	{
      "uuid" : "EBB349AF-5912-4E80-AB96-89CE74FF2132",
      "codeType" : "510",
      "batchID" : "128",
      "date" : "11\/01\/2017 16:56",
      "crypto" : {
        "batchID" : "187",
        "sequence" : "10207553",
        "codeType" : "510"
      },
      "code" : "133CW1KSKDTRLD55SDFFS",
      "valid_code" : "Valid",
      "sequence" : "10202453"
    },
	{
      "uuid" : "AF7749AF-459F-4E80-AB96-551924FF0C41",
      "codeType" : "670",
      "batchID" : "187",
      "date" : "11\/01\/2017 16:56",
      "crypto" : {
        "batchID" : "187",
        "sequence" : "10207553",
        "codeType" : "510"
      },
      "code" : "133CW1KSGLLY3FWN5HWSL",
      "valid_code" : "Valid",
      "sequence" : "10214553"
    },
	{
      "uuid" : "AF77EE14-4A94-4442-E196-130E74FF0C11",
      "codeType" : "49",
      "batchID" : "187",
      "date" : "11\/01\/2017 16:56",
      "crypto" : {
        "batchID" : "187",
        "sequence" : "10207553",
        "codeType" : "510"
      },
      "code" : "133FGGW67TW89TW9FSD88H",
      "valid_code" : "Valid",
      "sequence" : "10207653"
    },
	{
      "uuid" : "445EEB61-1A94-4442-A296-138E74FF0C23",
      "codeType" : "486",
      "batchID" : "187",
      "date" : "11\/01\/2017 16:56",
      "crypto" : {
        "batchID" : "187",
        "sequence" : "10207553",
        "codeType" : "510"
      },
      "code" : "133FGGWDFG675456565656SDFGSD",
      "valid_code" : "Valid",
      "sequence" : "10207554"
    }
  ],
  "startDate" : "11\/01\/2017 16:56",
  "bizId" : "basicfit",
  "bizName" : "BasicFit",
  "visitId" : "A94FF4A6-0822-4FE1-B63B-34E684AFFADE"
}