[
  {
    "id": "note1",
    "type": "notesCategory",
    "raw": {
      "en": {
        "types": [
          {
            "type": "Registration"
          },
          {
            "type": "Not applicable"
          }
        ]
      }
    }
  }
]