[
  {
    "id": "issue1",
    "type": "issuesCat",
    "raw": {
      "en": {
        "reasons": [
          {
            "reason": "Wrong VAT Reg."
          },
          {
            "reason": "Wrong address"
          },
          {
            "reason": "No license"
          }
        ],
        "actions": [
          {
            "action": "Registration offence"
          },
          {
            "action": "Request for audit"
          },
          {
            "action": "None"
          }
        ]
      }
    }

  }
]
