[
  {
    "id": "ClosureReasons",
    "type": "closureReasons",
    "raw": {
      "en": {
        "closure": [
          {
            "reason": "Completed"
          },
          {
            "reason": "Suspended"
          }
        ]
      }
    }
  }
]
