[
  {
    "id": "issue1",
    "type": "licenseIssuesCat",
    "raw": {
      "en": {
        "reasons": [
          {
            "reason": "No license"
          },
          {
            "reason": "Others"
          }
        ],
        "actions": [
          {
            "action": "Excise offence"
          },
          {
            "action": "Request for audit"
          },
          {
            "action": "None"
          }
        ]
      }
    }
  }
]
