[
  {
    "id": "note1",
    "type": "stampsNotesCategory",
    "raw": {
      "en": {
        "types": [
          {
            "type": "Stamps usage"
          },
          {
            "type": "Others"
          }
        ]
      }
    }
  }
]
