[
  {
    "id": "scanreasons",
    "raw": {
      "en": {
        "reasons": [
          {
            "reason": "Wrong tax class"
          },
          {
            "reason": "Invalid tax stamp"
          },
          {
            "reason": "Wrong application"
          },
          {
            "reason": "Others"
          }
        ]
      }
    }
  }
]
