{
  "campaignId" : "7",
  "visitId" : "404342-D8F6-4C49-8B81-EFFR54427803",
  "inspectorId" : "inspector",
  "startDate" : "11\/08\/2016 09:20",
  "bizId" : "kilgorismedicalclinic",
  "bizName" : "Kilgoris Medical Clinic",
  "endDate" : "16\/08\/2016 09:53",
  "status": "closed",
  "comments" : "The owner was a bit rude. He was not willing to collaborate. I had to call the police.",
  "issues" : [
        {
                "id": "VAT_not_payed",
                "reason": "Taxes",
                "action": "Economic penalty",
                "body": "The business must my fined as a consequence of unpayed taxes.",
                "attribute": "VAT",
                "images": ["003", "004", "005", "006", "007"]

        },
        {
                "id": "unhealthy_conditions",
                "reason": "Salubrity",
                "action": "Economic penalty",
                "body": "Dirt and rats. The shop is unhealthy",
                "attribute": "Salubrity",
                "images": ["008", "010", "011", "014", "015"]
        }
  ],
  "notes" : [
                {
                        "id": "note 1",
                        "reason": "wrong address",
                        "body": "Not corresponding address",
                        "attribute": "address",
                        "images": ["016", "017", "012", "013"]
                },
                {
                        "id": "note 2",
                        "reason": "wrong number of employees",
                        "body": "The number of employees is not right",
                        "attribute": "employees",
						"images": ["001", "002"]
                }
  ]
}