{
    "_meta": {
        "hostvars": {
            "localhost": {
                "ansible_ssh_host": "localhost"
            }
        }
    },
    "apache": {
        "hosts": [
            "horizon-app.demo.horizon.dev.sicpa.io",
            "horizon-app.prepro.horizon.dev.sicpa.io",
            "horizon-app.sqa.horizon.dev.sicpa.io"
        ]
    },
    "app": {
        "hosts": [
            "horizon-app.demo.horizon.dev.sicpa.io",
            "horizon-app.prepro.horizon.dev.sicpa.io",
            "horizon-app.sqa.horizon.dev.sicpa.io"
        ]
    },
    "app_demo": {
        "hosts": [
            "horizon-app.demo.horizon.dev.sicpa.io"
        ]
    },
    "app_prepro": {
        "hosts": [
            "horizon-app.prepro.horizon.dev.sicpa.io"
        ]
    },
    "app_sqa": {
        "hosts": [
            "horizon-app.sqa.horizon.dev.sicpa.io"
        ]
    },
    "db": {
        "hosts": [
            "horizon-db.demo.horizon.dev.sicpa.io",
            "horizon-db.prepro.horizon.dev.sicpa.io",
            "horizon-db.sqa.horizon.dev.sicpa.io"
        ]
    },
    "db_demo": {
        "hosts": [
            "horizon-db.demo.horizon.dev.sicpa.io"
        ]
    },
    "db_prepro": {
        "hosts": [
            "horizon-db.prepro.horizon.dev.sicpa.io"
        ]
    },
    "db_sqa": {
        "hosts": [
            "horizon-db.sqa.horizon.dev.sicpa.io"
        ]
    },
    "demo": {
        "hosts": [
            "horizon-app.demo.horizon.dev.sicpa.io",
            "horizon-db.demo.horizon.dev.sicpa.io"
        ]
    },
    "horizon-app.demo": {
        "hosts": [
            "horizon-app.demo.horizon.dev.sicpa.io"
        ]
    },
    "horizon-app.prepro": {
        "hosts": [
            "horizon-app.prepro.horizon.dev.sicpa.io"
        ]
    },
    "horizon-app.sqa": {
        "hosts": [
            "horizon-app.sqa.horizon.dev.sicpa.io"
        ]
    },
    "horizon-db.demo": {
        "hosts": [
            "horizon-db.demo.horizon.dev.sicpa.io"
        ]
    },
    "horizon-db.prepro": {
        "hosts": [
            "horizon-db.prepro.horizon.dev.sicpa.io"
        ]
    },
    "horizon-db.sqa": {
        "hosts": [
            "horizon-db.sqa.horizon.dev.sicpa.io"
        ]
    },
    "horizon_app": {
        "hosts": [
            "horizon-app.demo.horizon.dev.sicpa.io",
            "horizon-app.prepro.horizon.dev.sicpa.io",
            "horizon-app.sqa.horizon.dev.sicpa.io"
        ]
    },
    "horizon_app_demo": {
        "hosts": [
            "horizon-app.demo.horizon.dev.sicpa.io"
        ]
    },
    "horizon_app_prepro": {
        "hosts": [
            "horizon-app.prepro.horizon.dev.sicpa.io"
        ]
    },
    "horizon_app_sqa": {
        "hosts": [
            "horizon-app.sqa.horizon.dev.sicpa.io"
        ]
    },
    "horizon_db": {
        "hosts": [
            "horizon-db.demo.horizon.dev.sicpa.io",
            "horizon-db.prepro.horizon.dev.sicpa.io",
            "horizon-db.sqa.horizon.dev.sicpa.io"
        ]
    },
    "horizon_db_demo": {
        "hosts": [
            "horizon-db.demo.horizon.dev.sicpa.io"
        ]
    },
    "horizon_db_prepro": {
        "hosts": [
            "horizon-db.prepro.horizon.dev.sicpa.io"
        ]
    },
    "horizon_db_sqa": {
        "hosts": [
            "horizon-db.sqa.horizon.dev.sicpa.io"
        ]
    },
    "ldap": {
        "hosts": [
            "horizon-db.demo.horizon.dev.sicpa.io",
            "horizon-db.prepro.horizon.dev.sicpa.io",
            "horizon-db.sqa.horizon.dev.sicpa.io"
        ]
    },  
    "nip": {
        "hosts": [
            "horizon-app.demo.horizon.dev.sicpa.io",
            "horizon-app.prepro.horizon.dev.sicpa.io",
            "horizon-app.sqa.horizon.dev.sicpa.io"
        ]
    },
    "postgres": {
        "hosts": [
            "horizon-db.demo.horizon.dev.sicpa.io",
            "horizon-db.prepro.horizon.dev.sicpa.io",
            "horizon-db.sqa.horizon.dev.sicpa.io"
        ]
    },
    "prepro": {
        "hosts": [
            "horizon-app.prepro.horizon.dev.sicpa.io",
            "horizon-db.prepro.horizon.dev.sicpa.io"
        ]
    },
    "sqa": {
        "hosts": [
            "horizon-db.sqa.horizon.dev.sicpa.io",
            "horizon-app.sqa.horizon.dev.sicpa.io"
        ]
    }
}
