[
  {
    "id": "note1",
    "type": "stockBookSalesNotesCategory",
    "raw": {
      "en": {
        "types": [
          {
            "type": "Stock and sales"
          }
        ]
      }
    }
  }
]
