[ {
  "id" : "33",
  "parent" : "",
  "raw" : {
            "en": {
              "name": "Islamabad"
            }
  }
}, {
  "id" : "4452",
  "parent" : "33",
  "raw" : {
            "en" : {
              "name": "Zone 1"
            }
  }
}, {
  "id" : "171",
  "parent" : "33",
  "raw" : {
            "en": {
              "name": "Zone 2"
            }
  }
}, {
  "id" : "987",
  "parent" : "33",
  "raw" : {
          "en": {
            "name": "Zone 3"
          }
  }
}, {
  "id" : "456",
  "parent" : "33",
  "raw" : {
          "en": {
            "name": "Zone 10"
          }
  }
}, {
  "id" : "911",
  "parent" : "33",
  "raw" : {
          "en": {
            "name": "Rawal Town"
          }
  }
} ]