{
 "username":"Rukhsana",
 "firstName": "Rukhsana",
 "lastName":"Yasmin",
 "password":"1234",
 "roles":["SUPERVISOR"],
 "locations":[],
 "blocked":"false",
 "managedLocations":[],
 "managedRoles":[]
}