[
  {
    "id": "bizes_config_excise_stamps",
    "raw": {
      "fields": [
        {
          "field": "license-issuecat",
          "order": 0
        },
        {
          "field": "last6MonthsOrders",
          "order": 1
        },
        {
          "field": "last6MonthsActivation",
          "order": 2
        },
        {
          "field": "estimationStock",
          "order": 3
        }
      ]
    }
  }
]
