[
  {
    "id": "bizes_config_excise_production",
    "raw": {
      "fields": [
        {
          "field": "inputOutputVerification",
          "order": 0
        },
        {
          "field": "realtimeChecking",
          "order": 1
        },
        {
          "field": "rawMaterial",
          "order": 2
        }
      ]
    }
  }
]
