[
  {
    "id": "issue1",
    "type": "stockBookSalesIssuesCat",
    "raw": {
      "en": {
        "reasons": [
          {
            "reason": "Stock and Sales"
          }
        ],
        "actions": [
          {
            "action": "Excise offence"
          },
          {
            "action": "Request for audit"
          },
          {
            "action": "None"
          }
        ]
      }
    }
  }
]
